%YAML 1.1
%TAG !u! tag:unity3d.com,2011:
--- !u!114 &-3048665458272406341
MonoBehaviour:
  m_ObjectHideFlags: 3
  m_CorrespondingSourceObject: {fileID: 0}
  m_PrefabInstance: {fileID: 0}
  m_PrefabAsset: {fileID: 0}
  m_GameObject: {fileID: 0}
  m_Enabled: 1
  m_EditorHideFlags: 0
  m_Script: {fileID: 11500000, guid: 32b6af8f7ad32324cb6941c3290e5895, type: 3}
  m_Name: MicroShadowing
  m_EditorClassIdentifier: 
  active: 1
  m_AdvancedMode: 0
  enable:
    m_OverrideState: 0
    m_Value: 0
  opacity:
    m_OverrideState: 0
    m_Value: 1
    min: 0
    max: 1
--- !u!114 &-1138061680001853594
MonoBehaviour:
  m_ObjectHideFlags: 3
  m_CorrespondingSourceObject: {fileID: 0}
  m_PrefabInstance: {fileID: 0}
  m_PrefabAsset: {fileID: 0}
  m_GameObject: {fileID: 0}
  m_Enabled: 1
  m_EditorHideFlags: 0
  m_Script: {fileID: 11500000, guid: 7ddcec8a8eb2d684d833ac8f5d26aebd, type: 3}
  m_Name: HDShadowSettings
  m_EditorClassIdentifier: 
  active: 1
  m_AdvancedMode: 0
  maxShadowDistance:
    m_OverrideState: 0
    m_Value: 500
    min: 0
  directionalTransmissionMultiplier:
    m_OverrideState: 0
    m_Value: 1
    min: 0
    max: 1
  cascadeShadowSplitCount:
    m_OverrideState: 0
    m_Value: 4
    min: 1
    max: 4
  cascadeShadowSplit0:
    m_OverrideState: 0
    m_Value: 0.05
  cascadeShadowSplit1:
    m_OverrideState: 0
    m_Value: 0.15
  cascadeShadowSplit2:
    m_OverrideState: 0
    m_Value: 0.3
  cascadeShadowBorder0:
    m_OverrideState: 0
    m_Value: 0
  cascadeShadowBorder1:
    m_OverrideState: 0
    m_Value: 0
  cascadeShadowBorder2:
    m_OverrideState: 0
    m_Value: 0
  cascadeShadowBorder3:
    m_OverrideState: 0
    m_Value: 0
--- !u!114 &11400000
MonoBehaviour:
  m_ObjectHideFlags: 0
  m_CorrespondingSourceObject: {fileID: 0}
  m_PrefabInstance: {fileID: 0}
  m_PrefabAsset: {fileID: 0}
  m_GameObject: {fileID: 0}
  m_Enabled: 1
  m_EditorHideFlags: 0
  m_Script: {fileID: 11500000, guid: d7fd9488000d3734a9e00ee676215985, type: 3}
  m_Name: Volumetric light & fog Profile
  m_EditorClassIdentifier: 
  components:
  - {fileID: -1138061680001853594}
  - {fileID: 6105820271893327243}
  - {fileID: 2264714108505571517}
  - {fileID: -3048665458272406341}
--- !u!114 &2264714108505571517
MonoBehaviour:
  m_ObjectHideFlags: 3
  m_CorrespondingSourceObject: {fileID: 0}
  m_PrefabInstance: {fileID: 0}
  m_PrefabAsset: {fileID: 0}
  m_GameObject: {fileID: 0}
  m_Enabled: 1
  m_EditorHideFlags: 0
  m_Script: {fileID: 11500000, guid: 6b24b200358312b4fa1004e2431c2f1f, type: 3}
  m_Name: ShadowsMidtonesHighlights
  m_EditorClassIdentifier: 
  active: 1
  m_AdvancedMode: 0
  shadows:
    m_OverrideState: 0
    m_Value: {x: 1, y: 1, z: 1, w: 0}
  midtones:
    m_OverrideState: 0
    m_Value: {x: 1, y: 1, z: 1, w: 0}
  highlights:
    m_OverrideState: 0
    m_Value: {x: 1, y: 1, z: 1, w: 0}
  shadowsStart:
    m_OverrideState: 0
    m_Value: 0
    min: 0
  shadowsEnd:
    m_OverrideState: 0
    m_Value: 0.3
    min: 0
  highlightsStart:
    m_OverrideState: 0
    m_Value: 0.55
    min: 0
  highlightsEnd:
    m_OverrideState: 0
    m_Value: 1
    min: 0
--- !u!114 &6105820271893327243
MonoBehaviour:
  m_ObjectHideFlags: 3
  m_CorrespondingSourceObject: {fileID: 0}
  m_PrefabInstance: {fileID: 0}
  m_PrefabAsset: {fileID: 0}
  m_GameObject: {fileID: 0}
  m_Enabled: 1
  m_EditorHideFlags: 0
  m_Script: {fileID: 11500000, guid: 56b145d2b9ee1ac4f846968484e7485a, type: 3}
  m_Name: ContactShadows
  m_EditorClassIdentifier: 
  active: 1
  m_AdvancedMode: 0
  quality:
    m_OverrideState: 0
    m_Value: 1
  enable:
    m_OverrideState: 0
    m_Value: 0
  length:
    m_OverrideState: 0
    m_Value: 0.15
    min: 0
    max: 1
  opacity:
    m_OverrideState: 0
    m_Value: 1
    min: 0
    max: 1
  distanceScaleFactor:
    m_OverrideState: 0
    m_Value: 0.5
    min: 0
    max: 1
  maxDistance:
    m_OverrideState: 0
    m_Value: 50
    min: 0
  fadeDistance:
    m_OverrideState: 0
    m_Value: 5
    min: 0
  m_SampleCount:
    m_OverrideState: 0
    m_Value: 8
    min: 4
    max: 64
